(footprint "SSSS811101" (version 20211014) (generator pcbnew)
  (layer "F.Cu")
  (tedit 0)
  (attr through_hole)
  (fp_text reference "REF**" (at 3.9 -0.7) (layer "F.SilkS")
    (effects (font (size 1 1) (thickness 0.15)))
    (tstamp 76c4ffc7-889c-46e4-88e5-b038b1f97f95)
  )
  (fp_text value "SSSS811101" (at 0 5.275) (layer "F.SilkS")
    (effects (font (size 1 1) (thickness 0.15)))
    (tstamp f2f2ef40-4c32-4e33-9e08-f87274ce8f03)
  )
  (fp_text user "*" (at -1.354 -3.64998) (layer "F.Fab")
    (effects (font (size 1 1) (thickness 0.15)))
    (tstamp 2bc24c14-9793-477a-a083-325eae24b427)
  )
  (fp_text user "*" (at -1.354 -3.64998) (layer "F.Fab")
    (effects (font (size 1 1) (thickness 0.15)))
    (tstamp dbbbc8b8-21cb-492f-8fb9-bb0c934b12e4)
  )
  (fp_line (start -2.717802 0.8763) (end -1.4224 0.8763) (layer "F.SilkS") (width 0.12) (tstamp 056be2bc-420f-4b2d-a360-5dcc2c39a2e2))
  (fp_line (start -1.4224 -2.82194) (end -1.4224 -0.8763) (layer "F.SilkS") (width 0.12) (tstamp 26ad8481-5b31-48c2-8eab-4e9216c2e867))
  (fp_line (start -1.4224 -0.8763) (end -2.717802 -0.8763) (layer "F.SilkS") (width 0.12) (tstamp 32c22fa7-6afe-4751-b2b5-cda6c9f3dae0))
  (fp_line (start 0.36086 -3.4798) (end -0.36086 -3.4798) (layer "F.SilkS") (width 0.12) (tstamp 4baab6a0-20b9-4909-bc8a-724b905b3115))
  (fp_line (start -0.36086 3.4798) (end 0.36086 3.4798) (layer "F.SilkS") (width 0.12) (tstamp 7350ad0f-48f4-4d9a-a61e-909ca74cd323))
  (fp_line (start -1.4224 0.8763) (end -1.4224 2.82194) (layer "F.SilkS") (width 0.12) (tstamp c66405e4-ffa5-4b3e-8736-84a68b6aa00f))
  (fp_line (start -2.717802 -0.8763) (end -2.717802 0.8763) (layer "F.SilkS") (width 0.12) (tstamp ca484ea7-6237-404c-944e-431cf89efd45))
  (fp_line (start 1.4224 0.05334) (end 1.4224 -1.55448) (layer "F.SilkS") (width 0.12) (tstamp eb6faaa6-b825-4d96-aad6-e403113ccd5e))
  (fp_line (start -2.844802 1.0033) (end -1.5494 1.0033) (layer "F.CrtYd") (width 0.05) (tstamp 014c6775-3434-4292-bd53-5e94058292eb))
  (fp_line (start 1.667517 2.958319) (end 1.5494 2.958319) (layer "F.CrtYd") (width 0.05) (tstamp 04f7902d-82e2-4bb0-b3cc-f389ddb2186d))
  (fp_line (start -1.667517 -2.958319) (end -1.5494 -2.958319) (layer "F.CrtYd") (width 0.05) (tstamp 08c97a99-3844-4d26-b9b8-f84219819d50))
  (fp_line (start 2.68837 1.775779) (end 1.5494 1.775779) (layer "F.CrtYd") (width 0.05) (tstamp 0c32304c-f9cf-439e-ba23-dc975f9b9d6a))
  (fp_line (start 1.5494 0.277179) (end 1.5494 -1.778319) (layer "F.CrtYd") (width 0.05) (tstamp 1320836d-8aec-4801-b5fd-76aec3caa8ea))
  (fp_line (start -0.532484 -3.6068) (end -0.532484 -4.341641) (layer "F.CrtYd") (width 0.05) (tstamp 1c365d5e-9584-4d1a-942d-6857811b9435))
  (fp_line (start 1.667517 2.958319) (end 1.5494 2.958319) (layer "F.CrtYd") (width 0.05) (tstamp 1fb7e2d9-f8aa-42ad-a414-dff8aa19478c))
  (fp_line (start -0.532484 -4.341641) (end -1.667517 -4.341641) (layer "F.CrtYd") (width 0.05) (tstamp 26e798ce-c20c-45d8-a5e6-369693f04c57))
  (fp_line (start -1.667517 2.958319) (end -1.667517 4.341641) (layer "F.CrtYd") (width 0.05) (tstamp 282d26bf-cdac-420d-a719-e101792a04c8))
  (fp_line (start 0.532484 -4.341641) (end 0.532484 -3.6068) (layer "F.CrtYd") (width 0.05) (tstamp 28a3c782-121f-4ded-b391-6f30185e871f))
  (fp_line (start -1.5494 -1.0033) (end -2.844802 -1.0033) (layer "F.CrtYd") (width 0.05) (tstamp 2e257e4a-6294-4f2c-b77b-e5b27642a6a9))
  (fp_line (start 1.667517 -2.958319) (end 1.667517 -4.341641) (layer "F.CrtYd") (width 0.05) (tstamp 2f1aea1f-5ce6-45f0-9eb0-03136cd8e115))
  (fp_line (start 2.68837 1.206181) (end 2.68837 0.277179) (layer "F.CrtYd") (width 0.05) (tstamp 32eddbd7-9c54-4407-96db-c937e67b5ad8))
  (fp_line (start 1.5494 -2.707321) (end 1.5494 -2.958319) (layer "F.CrtYd") (width 0.05) (tstamp 3518c8ae-0587-45af-8abc-fdfc3694350a))
  (fp_line (start -1.5494 -2.958319) (end -1.5494 -1.0033) (layer "F.CrtYd") (width 0.05) (tstamp 3c393c60-d59a-46a2-9b03-09cdea13d17a))
  (fp_line (start 1.5494 1.206181) (end 2.68837 1.206181) (layer "F.CrtYd") (width 0.05) (tstamp 410d8d7d-5961-4dae-9156-979039a8b0b5))
  (fp_line (start 2.68837 -2.707321) (end 1.5494 -2.707321) (layer "F.CrtYd") (width 0.05) (tstamp 462ebb23-bda2-4e84-8770-ee9486b2b325))
  (fp_line (start -1.5494 2.958319) (end -1.667517 2.958319) (layer "F.CrtYd") (width 0.05) (tstamp 46c1cb29-3fea-45ad-9810-7713f8547bf2))
  (fp_line (start 0.532484 -4.341641) (end 0.532484 -3.6068) (layer "F.CrtYd") (width 0.05) (tstamp 46e43b61-a7ec-4fb2-86fb-40d8ba9d188e))
  (fp_line (start 1.667517 4.341641) (end 1.667517 2.958319) (layer "F.CrtYd") (width 0.05) (tstamp 4749410e-ca9a-49cc-82dc-260f45761c59))
  (fp_line (start 0.532484 3.6068) (end 0.532484 4.341641) (layer "F.CrtYd") (width 0.05) (tstamp 47cb048a-6cbd-4f99-9fe4-2d32d83a45ac))
  (fp_line (start 2.68837 0.277179) (end 1.5494 0.277179) (layer "F.CrtYd") (width 0.05) (tstamp 4af21f76-8f18-427d-b552-d2421f6d6e35))
  (fp_line (start 1.5494 -2.707321) (end 1.5494 -2.958319) (layer "F.CrtYd") (width 0.05) (tstamp 4b186f4c-cb4f-4d28-a74e-3c5d75d98c8e))
  (fp_line (start 0.532484 -3.6068) (end -0.532484 -3.6068) (layer "F.CrtYd") (width 0.05) (tstamp 53f3b5d6-2a3d-4f7a-9124-8ba62627b284))
  (fp_line (start 1.667517 -2.958319) (end 1.667517 -4.341641) (layer "F.CrtYd") (width 0.05) (tstamp 546441ef-a24e-43a2-b0f8-8904966f74db))
  (fp_line (start 1.667517 -4.341641) (end 0.532484 -4.341641) (layer "F.CrtYd") (width 0.05) (tstamp 54c7a914-837a-4001-819a-f59ce086f8ea))
  (fp_line (start 1.5494 0.277179) (end 1.5494 -1.778319) (layer "F.CrtYd") (width 0.05) (tstamp 5612a996-6f3e-4ed4-89cb-f3ad278964f3))
  (fp_line (start -0.532484 -4.341641) (end -1.667517 -4.341641) (layer "F.CrtYd") (width 0.05) (tstamp 5abaf264-cb0a-42f3-aa37-86c772036c12))
  (fp_line (start 1.5494 2.958319) (end 1.5494 2.704781) (layer "F.CrtYd") (width 0.05) (tstamp 63f6e151-eab4-4e07-b61c-fb5337536880))
  (fp_line (start 0.532484 -3.6068) (end -0.532484 -3.6068) (layer "F.CrtYd") (width 0.05) (tstamp 708f8aed-7f5b-4a58-939a-e5ba867e362a))
  (fp_line (start 1.5494 1.775779) (end 1.5494 1.206181) (layer "F.CrtYd") (width 0.05) (tstamp 715f70c1-fedf-4f56-a1dd-03e668c8d84c))
  (fp_line (start -0.532484 3.6068) (end 0.532484 3.6068) (layer "F.CrtYd") (width 0.05) (tstamp 737637cb-7d93-4174-8abc-b021a41e6c06))
  (fp_line (start 1.5494 -2.958319) (end 1.667517 -2.958319) (layer "F.CrtYd") (width 0.05) (tstamp 752f6f86-529d-4a35-bf0c-19f17ee9e919))
  (fp_line (start 1.5494 2.704781) (end 2.68837 2.704781) (layer "F.CrtYd") (width 0.05) (tstamp 88736675-649d-41ac-8db0-f87456f9efb2))
  (fp_line (start 1.5494 1.206181) (end 2.68837 1.206181) (layer "F.CrtYd") (width 0.05) (tstamp 89caef7f-2c64-407d-8270-1c02191b6ff4))
  (fp_line (start 1.5494 2.958319) (end 1.5494 2.704781) (layer "F.CrtYd") (width 0.05) (tstamp 8a78e19d-5451-4116-a11d-677ab5ecc22a))
  (fp_line (start 0.532484 4.341641) (end 1.667517 4.341641) (layer "F.CrtYd") (width 0.05) (tstamp 8c3e60d9-87b8-4176-88ae-c57fcd8f7a19))
  (fp_line (start 1.5494 2.704781) (end 2.68837 2.704781) (layer "F.CrtYd") (width 0.05) (tstamp 8d64fc21-ca1a-4560-bee0-5714f99ad66b))
  (fp_line (start -2.844802 1.0033) (end -1.5494 1.0033) (layer "F.CrtYd") (width 0.05) (tstamp 942e4f07-b9fb-4a06-a8cf-0806cfdaa12d))
  (fp_line (start 1.5494 1.775779) (end 1.5494 1.206181) (layer "F.CrtYd") (width 0.05) (tstamp 99a13515-92e7-4ac8-b448-b182da08bd94))
  (fp_line (start -2.844802 -1.0033) (end -2.844802 1.0033) (layer "F.CrtYd") (width 0.05) (tstamp 99a3ee67-dfd6-456a-8d99-e0c6bb1cc6a0))
  (fp_line (start -0.532484 3.6068) (end 0.532484 3.6068) (layer "F.CrtYd") (width 0.05) (tstamp 9ef7a40b-ea5d-45b1-9f72-866e04bad570))
  (fp_line (start -2.844802 -1.0033) (end -2.844802 1.0033) (layer "F.CrtYd") (width 0.05) (tstamp 9fbeea8e-61a6-44e1-bf42-fdb8b77f5b43))
  (fp_line (start 2.68837 -2.707321) (end 1.5494 -2.707321) (layer "F.CrtYd") (width 0.05) (tstamp a6f833d9-04b0-4418-a0b8-c568b5600673))
  (fp_line (start -1.5494 -2.958319) (end -1.5494 -1.0033) (layer "F.CrtYd") (width 0.05) (tstamp a724159d-11a5-4fba-949e-24b31aeccd0f))
  (fp_line (start 0.532484 4.341641) (end 1.667517 4.341641) (layer "F.CrtYd") (width 0.05) (tstamp a885f4f4-5770-4e17-a889-a5ce92520657))
  (fp_line (start 1.667517 -4.341641) (end 0.532484 -4.341641) (layer "F.CrtYd") (width 0.05) (tstamp aa7d0e2d-311b-42e3-809a-cba7b0d19b5e))
  (fp_line (start 1.667517 4.341641) (end 1.667517 2.958319) (layer "F.CrtYd") (width 0.05) (tstamp c29ec570-27aa-4ae6-ad1f-241ecf655a5c))
  (fp_line (start 2.68837 -1.778319) (end 2.68837 -2.707321) (layer "F.CrtYd") (width 0.05) (tstamp c3cb0338-56b0-47b8-9836-cced4f36d221))
  (fp_line (start -1.5494 1.0033) (end -1.5494 2.958319) (layer "F.CrtYd") (width 0.05) (tstamp c49b571e-f0c9-41f2-bb58-d40573e25fdd))
  (fp_line (start -0.532484 4.341641) (end -0.532484 3.6068) (layer "F.CrtYd") (width 0.05) (tstamp c747f01c-1df4-4753-abde-62a727d5b71d))
  (fp_line (start -1.5494 2.958319) (end -1.667517 2.958319) (layer "F.CrtYd") (width 0.05) (tstamp c8b38b96-bdb5-49cc-af15-fe58c1d61886))
  (fp_line (start -1.667517 -4.341641) (end -1.667517 -2.958319) (layer "F.CrtYd") (width 0.05) (tstamp cc0aacd5-9b31-452f-aba2-bd92dfb0602c))
  (fp_line (start -1.667517 4.341641) (end -0.532484 4.341641) (layer "F.CrtYd") (width 0.05) (tstamp cc158ad4-d9dd-4d37-bb02-0252373b37dc))
  (fp_line (start -1.667517 2.958319) (end -1.667517 4.341641) (layer "F.CrtYd") (width 0.05) (tstamp cc8307cc-d052-4fdb-93b3-598b664ff5b6))
  (fp_line (start 2.68837 2.704781) (end 2.68837 1.775779) (layer "F.CrtYd") (width 0.05) (tstamp ccee2453-fd89-40b9-a34f-9e7e20f6b8da))
  (fp_line (start -1.5494 -1.0033) (end -2.844802 -1.0033) (layer "F.CrtYd") (width 0.05) (tstamp cd2d90ba-8734-4e23-9f75-d0392c153093))
  (fp_line (start 2.68837 1.775779) (end 1.5494 1.775779) (layer "F.CrtYd") (width 0.05) (tstamp d14e6034-8b52-42f5-a483-c9f7a3e6f95a))
  (fp_line (start 1.5494 -2.958319) (end 1.667517 -2.958319) (layer "F.CrtYd") (width 0.05) (tstamp d52d690c-2576-4a6f-9a6f-d95d6b5f995d))
  (fp_line (start -1.667517 4.341641) (end -0.532484 4.341641) (layer "F.CrtYd") (width 0.05) (tstamp d960904d-6641-425f-b066-0a487d9bf179))
  (fp_line (start 2.68837 0.277179) (end 1.5494 0.277179) (layer "F.CrtYd") (width 0.05) (tstamp db68d129-6b8e-486b-ab58-d5773e7082d4))
  (fp_line (start 0.532484 3.6068) (end 0.532484 4.341641) (layer "F.CrtYd") (width 0.05) (tstamp deed8a51-32fb-401f-8b3a-0b35f6e54c6f))
  (fp_line (start 2.68837 2.704781) (end 2.68837 1.775779) (layer "F.CrtYd") (width 0.05) (tstamp e2acfa2d-03f0-4e8a-9fa7-7b5f7630c4b0))
  (fp_line (start -1.667517 -4.341641) (end -1.667517 -2.958319) (layer "F.CrtYd") (width 0.05) (tstamp e2e4528a-4d41-4e16-9a4d-997643938c06))
  (fp_line (start 2.68837 -1.778319) (end 2.68837 -2.707321) (layer "F.CrtYd") (width 0.05) (tstamp e63345dd-ff38-497c-b7db-39d7115c54a8))
  (fp_line (start -1.667517 -2.958319) (end -1.5494 -2.958319) (layer "F.CrtYd") (width 0.05) (tstamp efccd404-7f58-435f-91c8-60250d44b35f))
  (fp_line (start 1.5494 -1.778319) (end 2.68837 -1.778319) (layer "F.CrtYd") (width 0.05) (tstamp f06cf854-a613-4b7e-a6aa-694c4ef86bf3))
  (fp_line (start 1.5494 -1.778319) (end 2.68837 -1.778319) (layer "F.CrtYd") (width 0.05) (tstamp f0fb87d1-c852-475b-b319-ccbe61c2e4ea))
  (fp_line (start 2.68837 1.206181) (end 2.68837 0.277179) (layer "F.CrtYd") (width 0.05) (tstamp f3553e7d-0ebb-4c51-bb47-35047c84629e))
  (fp_line (start -0.532484 4.341641) (end -0.532484 3.6068) (layer "F.CrtYd") (width 0.05) (tstamp f5964fee-e370-4573-9209-d2cfc4db286a))
  (fp_line (start -0.532484 -3.6068) (end -0.532484 -4.341641) (layer "F.CrtYd") (width 0.05) (tstamp f86b0575-8bb9-4b23-9359-fbb494a2aeac))
  (fp_line (start -1.5494 1.0033) (end -1.5494 2.958319) (layer "F.CrtYd") (width 0.05) (tstamp fa96eeb7-7f55-44d5-82f3-736d9402045a))
  (fp_line (start -1.2954 0) (end -1.2954 0) (layer "F.Fab") (width 0.1) (tstamp 0e4275c0-f2c9-4292-80aa-01e0f19af150))
  (fp_line (start -1.2954 -3.3528) (end -1.2954 3.3528) (layer "F.Fab") (width 0.1) (tstamp 25de97fe-5040-4990-a013-355b3ebef4e4))
  (fp_line (start -1.2954 0) (end -1.2954 0) (layer "F.Fab") (width 0.1) (tstamp 29825e11-c114-4950-a22d-32e23de17d78))
  (fp_line (start 1.2954 -3.64998) (end 1.2954 -3.64998) (layer "F.Fab") (width 0.1) (tstamp 2d1fb176-dcc5-4154-86e2-5e045600c63c))
  (fp_line (start 1.2954 0) (end 1.2954 0) (layer "F.Fab") (width 0.1) (tstamp 399a99ad-06d0-40d1-acd5-b2ea937bb6b5))
  (fp_line (start -1.295402 -0.7493) (end -2.590802 -0.7493) (layer "F.Fab") (width 0.1) (tstamp 4223c7e0-82e2-4f76-9d10-ca1daa0c42f7))
  (fp_line (start 1.2954 3.64998) (end 1.2954 3.64998) (layer "F.Fab") (width 0.1) (tstamp 4b31bb49-3bbb-4228-b24b-da4d37406cf1))
  (fp_line (start -1.2954 -3.64998) (end -1.2954 -3.64998) (layer "F.Fab") (width 0.1) (tstamp 4e779069-84dd-46b5-a5fc-f39451ad7ebc))
  (fp_line (start -1.2954 3.3528) (end 1.2954 3.3528) (layer "F.Fab") (width 0.1) (tstamp 5db70eba-1dec-462f-9825-f910e3c8efcf))
  (fp_line (start 1.2954 -3.64998) (end 1.2954 -3.64998) (layer "F.Fab") (width 0.1) (tstamp 7d0be7fa-4060-4e6a-a0df-726a5c55fbb4))
  (fp_line (start 1.2954 3.64998) (end 1.2954 3.64998) (layer "F.Fab") (width 0.1) (tstamp 84933dab-d80b-4bb7-a69a-eac0498f5c3a))
  (fp_line (start 1.2954 -3.3528) (end -1.2954 -3.3528) (layer "F.Fab") (width 0.1) (tstamp 863598a5-4380-4e95-82bf-e2174bb91b5b))
  (fp_line (start -1.2954 3.64998) (end -1.2954 3.64998) (layer "F.Fab") (width 0.1) (tstamp 8e3468cd-7167-48d6-b510-c0c734391133))
  (fp_line (start -1.2954 -3.64998) (end -1.2954 -3.64998) (layer "F.Fab") (width 0.1) (tstamp 8f8dbeae-53af-4c43-8caa-53ee18ab6842))
  (fp_line (start -1.2954 3.64998) (end -1.2954 3.64998) (layer "F.Fab") (width 0.1) (tstamp 9dbab2fe-b9be-4eb9-8b99-f35c6d0d2dcf))
  (fp_line (start -1.2954 -3.64998) (end -1.2954 -3.64998) (layer "F.Fab") (width 0.1) (tstamp a9e40fc8-1424-4914-8231-95bb9541bc2a))
  (fp_line (start 1.2954 3.64998) (end 1.2954 3.64998) (layer "F.Fab") (width 0.1) (tstamp aae4518c-e23e-4064-82f5-97e4474bff74))
  (fp_line (start -1.2954 0) (end -1.2954 0) (layer "F.Fab") (width 0.1) (tstamp ab6705c8-13d0-47c7-848f-80a90da80482))
  (fp_line (start 1.2954 3.64998) (end 1.2954 3.64998) (layer "F.Fab") (width 0.1) (tstamp abcb1f60-7a79-4936-ab35-eae5587e0508))
  (fp_line (start 1.2954 0) (end 1.2954 0) (layer "F.Fab") (width 0.1) (tstamp ad39fda2-91c8-484e-b328-df9a91cee1ad))
  (fp_line (start -1.295402 0.7493) (end -2.590802 0.7493) (layer "F.Fab") (width 0.1) (tstamp ad5f96f1-6672-4e42-8121-55f5e39bf503))
  (fp_line (start 1.2954 0) (end 1.2954 0) (layer "F.Fab") (width 0.1) (tstamp b31297f8-8834-4147-845a-5c072ce0d4ec))
  (fp_line (start 1.2954 0) (end 1.2954 0) (layer "F.Fab") (width 0.1) (tstamp b6ffaa40-e8c0-4b29-b374-e6c49c054c89))
  (fp_line (start -1.2954 3.64998) (end -1.2954 3.64998) (layer "F.Fab") (width 0.1) (tstamp c49591d4-761c-4c5e-b3d1-972a08b475cb))
  (fp_line (start -1.2954 -3.64998) (end -1.2954 -3.64998) (layer "F.Fab") (width 0.1) (tstamp c571a19a-0c94-4731-ba89-a6f87c4a6345))
  (fp_line (start -1.2954 3.64998) (end -1.2954 3.64998) (layer "F.Fab") (width 0.1) (tstamp d4d22e95-4932-42ef-9ded-564c76157a85))
  (fp_line (start -1.2954 0) (end -1.2954 0) (layer "F.Fab") (width 0.1) (tstamp daeddee2-bf80-4497-87bb-78b1b712dd28))
  (fp_line (start 1.2954 -3.64998) (end 1.2954 -3.64998) (layer "F.Fab") (width 0.1) (tstamp e1eecb6c-8bdc-4497-bbfb-85a24cb48bca))
  (fp_line (start 1.2954 3.3528) (end 1.2954 -3.3528) (layer "F.Fab") (width 0.1) (tstamp e3523656-e494-4abe-8043-05c12619e051))
  (fp_line (start -2.590802 0.7493) (end -2.590802 -0.7493) (layer "F.Fab") (width 0.1) (tstamp e4a7e72b-c451-4332-809a-f348375c353c))
  (fp_line (start 1.2954 -3.64998) (end 1.2954 -3.64998) (layer "F.Fab") (width 0.1) (tstamp eb54762c-14cc-4dc3-981d-6007a86a4694))
  (fp_arc (start 0.3048 -3.3528) (mid 0 -3.048) (end -0.3048 -3.3528) (layer "F.Fab") (width 0.1) (tstamp 2470ff6d-6c38-4be3-b8bc-c7641e017e38))
  (pad "" smd rect (at -1.1 -3.64998) (size 0.8128 0.9906) (layers "F.Cu" "F.Paste" "F.Mask") (tstamp 33d1294b-2385-4eac-940a-732a3c27bf60))
  (pad "" smd rect (at 1.1 -3.64998) (size 0.8128 0.9906) (layers "F.Cu" "F.Paste" "F.Mask") (tstamp 3c5f9a4b-2e41-4373-b404-896718b297ee))
  (pad "" thru_hole circle (at 0 -1.49352) (size 1.397 1.397) (drill 0.889) (layers *.Cu *.Mask) (tstamp 4b3a5ba5-1def-4a60-8829-f6d294ab787b))
  (pad "" smd rect (at -1.1 3.64998) (size 0.8128 0.9906) (layers "F.Cu" "F.Paste" "F.Mask") (tstamp 928ecc04-71d8-450e-94d2-74dda27e5144))
  (pad "" smd rect (at 1.1 3.64998) (size 0.8128 0.9906) (layers "F.Cu" "F.Paste" "F.Mask") (tstamp cb4feed6-cb29-45f9-91f6-c6d0b244fd80))
  (pad "" thru_hole circle (at 0 1.50368) (size 1.397 1.397) (drill 0.889) (layers *.Cu *.Mask) (tstamp fd5350ec-efb8-4649-b4d3-5114bc0f8d35))
  (pad "1" smd rect (at 1.7096 -2.24282) (size 1.4986 0.7112) (layers "F.Cu" "F.Paste" "F.Mask") (tstamp a9cf0695-0970-46f7-8a3b-f825a7ab6073))
  (pad "2" smd rect (at 1.7096 0.74168) (size 1.4986 0.7112) (layers "F.Cu" "F.Paste" "F.Mask") (tstamp ec78174d-a87f-402d-bb7d-eb490a416978))
  (pad "3" smd rect (at 1.7096 2.24028) (size 1.4986 0.7112) (layers "F.Cu" "F.Paste" "F.Mask") (tstamp a7c6b4de-97ef-4f1f-972b-c6013e85257e))
  (model "/home/gustav/development/my_projects/lib/kicad_lib/footprint/my_switch.pretty/SSSS811101.STEP"
    (offset (xyz 0 0 0))
    (scale (xyz 1 1 1))
    (rotate (xyz -90 0 90))
  )
)
