(footprint "TS-1103S-B-A" (version 20211014) (generator pcbnew)
  (layer "F.Cu")
  (tedit 0)
  (attr smd)
  (fp_text reference "REF**" (at 0 -7 unlocked) (layer "F.SilkS")
    (effects (font (size 1 1) (thickness 0.15)))
    (tstamp 1ed608ab-93c4-4b24-88d7-9f181c3d8533)
  )
  (fp_text value "TS-1103S-B-A" (at 0 7.75 unlocked) (layer "F.Fab")
    (effects (font (size 1 1) (thickness 0.15)))
    (tstamp a3d23a13-160f-49eb-8842-f9bf66081eff)
  )
  (fp_text user "${REFERENCE}" (at 0 -7 unlocked) (layer "F.Fab")
    (effects (font (size 1 1) (thickness 0.15)))
    (tstamp d3bd3f41-7988-4af3-b871-a7c21b6f342e)
  )
  (fp_line (start -6 -6) (end -6 6) (layer "F.SilkS") (width 0.12) (tstamp 706113ce-9d07-4b86-b16f-199d54c596af))
  (fp_line (start 6 -6) (end -6 -6) (layer "F.SilkS") (width 0.12) (tstamp 7fb2911a-5a99-4dfa-b64b-91f90f01d5dc))
  (fp_line (start -6 6) (end 6 6) (layer "F.SilkS") (width 0.12) (tstamp 8c4f4aca-e095-447c-9e07-0ef648834921))
  (fp_line (start 6 6) (end 6 -6) (layer "F.SilkS") (width 0.12) (tstamp f2f8c834-b536-4eea-89e6-4ff01cc4bc01))
  (fp_circle (center 0 0) (end 0 4) (layer "F.SilkS") (width 0.12) (fill none) (tstamp 4b109367-c0e5-40a2-9b50-af1c578102c2))
  (fp_rect (start 9.25 -6.25) (end -9.25 6.25) (layer "F.CrtYd") (width 0.05) (fill none) (tstamp d36ba98a-a5d1-4dcc-83f2-90ba8ac33007))
  (fp_rect (start -6 -6) (end 6 6) (layer "F.Fab") (width 0.1) (fill none) (tstamp 265b3d3f-be9e-46af-98f7-71aa7c6a374a))
  (fp_circle (center 0 0) (end 4 0) (layer "F.Fab") (width 0.1) (fill none) (tstamp 68c6c28a-e80d-46c7-88ea-3c3ce3bf4847))
  (pad "1" smd rect (at -7.5 -2.5) (size 3 1.5) (layers "F.Cu" "F.Paste" "F.Mask") (tstamp c984a985-bb71-4174-8ba4-452304ed9bf1))
  (pad "2" smd rect (at 7.5 -2.5 180) (size 3 1.5) (layers "F.Cu" "F.Paste" "F.Mask") (tstamp 920888c7-3d93-4699-ad35-7d4c143b2730))
  (pad "3" smd rect (at -7.5 2.5) (size 3 1.5) (layers "F.Cu" "F.Paste" "F.Mask") (tstamp 29835168-b9ef-4768-be91-f2c8a4888e2b))
  (pad "4" smd rect (at 7.5 2.5 180) (size 3 1.5) (layers "F.Cu" "F.Paste" "F.Mask") (tstamp f79a7ac1-0330-49b6-837b-1b8dad5179de))
  (model "${MY_LIB}/footprint/my_switch.pretty/TS-1103S-B-A.stp"
    (offset (xyz 0 0 0))
    (scale (xyz 1 1 1))
    (rotate (xyz 0 0 0))
  )
)
