(footprint "PJ-327U-SMT" (version 20211014) (generator pcbnew)
  (layer "F.Cu")
  (tedit 0)
  (descr "PJ-327U-SMT")
  (tags "Connector")
  (attr through_hole)
  (fp_text reference "J**" (at -0.4 6) (layer "F.SilkS")
    (effects (font (size 1.27 1.27) (thickness 0.254)))
    (tstamp a8c8159f-8b1b-4feb-8eea-992d436997f1)
  )
  (fp_text value "PJ-327U-SMT" (at -0.4 6) (layer "F.SilkS") hide
    (effects (font (size 1.27 1.27) (thickness 0.254)))
    (tstamp 047e8c35-406c-45b2-b7d7-31426432f051)
  )
  (fp_text user "${REFERENCE}" (at -0.4 6) (layer "F.Fab")
    (effects (font (size 1.27 1.27) (thickness 0.254)))
    (tstamp c7fd89fc-6c3f-4006-940f-fb282abc0966)
  )
  (fp_line (start -2.5 0) (end 2.5 0) (layer "F.SilkS") (width 0.1) (tstamp 02db725a-b5bb-4ec5-a962-1d683e6bd787))
  (fp_line (start 2.5 3) (end 2.5 3.75) (layer "F.SilkS") (width 0.1) (tstamp 0805778d-a48c-4036-bf2d-8214e09e270c))
  (fp_line (start 2.5 0) (end 2.5 0) (layer "F.SilkS") (width 0.1) (tstamp 0a518fd8-d125-44d3-8165-4389bd20ec45))
  (fp_line (start -2.5 4) (end -2.5 4) (layer "F.SilkS") (width 0.1) (tstamp 0b02325f-08e1-4a11-8cf2-c8aaae29d499))
  (fp_line (start 2.5 3.75) (end 2.5 3.75) (layer "F.SilkS") (width 0.1) (tstamp 0e8457f5-fc7b-4902-b194-380c7eab4d17))
  (fp_line (start -2.5 0.75) (end -2.5 0) (layer "F.SilkS") (width 0.1) (tstamp 15ba4dfa-a2ba-41d8-9d27-d44d640c939e))
  (fp_line (start 2.5 6.75) (end 2.5 6.75) (layer "F.SilkS") (width 0.1) (tstamp 19426693-b5a9-42c9-86e9-c2f3bfe44bb4))
  (fp_line (start -2.5 11) (end -2.5 11) (layer "F.SilkS") (width 0.1) (tstamp 1d7531b2-e176-45cb-9e14-c6eca27e941f))
  (fp_line (start 2.5 9.25) (end 2.5 6.75) (layer "F.SilkS") (width 0.1) (tstamp 1fe61d1e-bebd-4c38-858e-42a0c9584085))
  (fp_line (start -3.95 0.95) (end -3.95 0.95) (layer "F.SilkS") (width 0.2) (tstamp 2c516eef-a340-44c6-b69b-d4226fcdc0ab))
  (fp_line (start -2.5 12) (end -2.5 12) (layer "F.SilkS") (width 0.1) (tstamp 2ee5bf57-be68-4514-b07b-b6886597b6f8))
  (fp_line (start -2.5 11) (end -2.5 12) (layer "F.SilkS") (width 0.1) (tstamp 2f7cfb85-fe83-4315-913a-ab6f5229f17f))
  (fp_line (start 2.5 3) (end 2.5 3) (layer "F.SilkS") (width 0.1) (tstamp 357d9c78-78cf-4adb-a8b3-4c5296c20a85))
  (fp_line (start -2.5 0.75) (end -2.5 0.75) (layer "F.SilkS") (width 0.1) (tstamp 35c4ff0c-f38b-4087-a6aa-f4b47fccd7b0))
  (fp_line (start -2.5 8) (end -2.5 8) (layer "F.SilkS") (width 0.1) (tstamp 3de8271c-c749-4783-bfb7-2692fb552e49))
  (fp_line (start -2.5 4) (end -2.5 8) (layer "F.SilkS") (width 0.1) (tstamp 3fdc9103-7b27-4e8c-bccd-a37fd71e37fa))
  (fp_line (start -2.5 12) (end 1.5 12) (layer "F.SilkS") (width 0.1) (tstamp 436fc65d-f575-4114-8f1f-1c56f23b3692))
  (fp_line (start -2.5 12) (end -2.5 12) (layer "F.SilkS") (width 0.1) (tstamp 5a00b1a4-062f-43c5-82b7-54a345ef2b76))
  (fp_line (start -2.5 0) (end -2.5 0) (layer "F.SilkS") (width 0.1) (tstamp 5e6c32a6-79e5-4c42-90c3-4275f4bf3baa))
  (fp_line (start -2.5 0) (end -2.5 0) (layer "F.SilkS") (width 0.1) (tstamp 65bf1028-a467-4d55-8733-0693bd24080f))
  (fp_line (start -2.5 8) (end -2.5 4) (layer "F.SilkS") (width 0.1) (tstamp 6d7caf80-06ad-461b-8f38-a08ffcaa5e48))
  (fp_line (start -3.95 1.05) (end -3.95 1.05) (layer "F.SilkS") (width 0.2) (tstamp 78027b0e-ee07-48ed-906a-57974abff474))
  (fp_line (start 1.5 12) (end 1.5 12) (layer "F.SilkS") (width 0.1) (tstamp 891e308d-c931-49e2-8175-150b680c1cba))
  (fp_line (start -3.95 0.95) (end -3.95 0.95) (layer "F.SilkS") (width 0.2) (tstamp 8b69b395-32d3-4b0b-a392-5193f02ffe47))
  (fp_line (start 1.5 12) (end -2.5 12) (layer "F.SilkS") (width 0.1) (tstamp 99fec4da-36d9-48bb-a46c-0bf2dfa42a3d))
  (fp_line (start 2.5 0) (end -2.5 0) (layer "F.SilkS") (width 0.1) (tstamp bd43c0b3-2f11-466c-97c4-f24fa8aa6529))
  (fp_line (start -2.5 0) (end -2.5 0.75) (layer "F.SilkS") (width 0.1) (tstamp c17c9d21-a394-4464-9017-f168a5ab73ed))
  (fp_line (start 2.5 3.75) (end 2.5 3) (layer "F.SilkS") (width 0.1) (tstamp c5a39b23-550e-45d2-9461-05e1174881ec))
  (fp_line (start -2.5 12) (end -2.5 11) (layer "F.SilkS") (width 0.1) (tstamp e92d877f-d1af-4370-979f-50e73f7c96bb))
  (fp_line (start 2.5 6.75) (end 2.5 9.25) (layer "F.SilkS") (width 0.1) (tstamp f21a4760-2a58-4618-93bd-bb3abed9af21))
  (fp_line (start 2.5 9.25) (end 2.5 9.25) (layer "F.SilkS") (width 0.1) (tstamp fa731d6c-8dfa-4d70-b0aa-b9b66e525132))
  (fp_arc (start -3.95 1.05) (mid -4 1) (end -3.95 0.95) (layer "F.SilkS") (width 0.2) (tstamp 2d789da8-1d6a-4bcb-92f7-ec832cf2faaf))
  (fp_arc (start -3.95 0.95) (mid -3.9 1) (end -3.95 1.05) (layer "F.SilkS") (width 0.2) (tstamp 76587de2-ef78-4e5b-adfb-5761c2900477))
  (fp_arc (start -3.95 1.05) (mid -4 1) (end -3.95 0.95) (layer "F.SilkS") (width 0.2) (tstamp dd8aea78-76c5-4638-ad9f-94d0a38eb23a))
  (fp_line (start -4 0) (end 4 0) (layer "Edge.Cuts") (width 0.12) (tstamp 6bce43f5-d3ec-4c47-926c-019caccbf816))
  (fp_line (start -6.65 -1) (end 5.85 -1) (layer "F.CrtYd") (width 0.1) (tstamp 05aca5c4-410a-471a-865f-de855c0e2bc8))
  (fp_line (start 5.85 -1) (end 5.85 13) (layer "F.CrtYd") (width 0.1) (tstamp 895b1469-92d6-413c-a4e0-c3da0afe6fb8))
  (fp_line (start -6.65 13) (end -6.65 -1) (layer "F.CrtYd") (width 0.1) (tstamp 958c0433-7052-4b11-873b-cfd9b9ae231b))
  (fp_line (start 5.85 13) (end -6.65 13) (layer "F.CrtYd") (width 0.1) (tstamp f780b20d-5d17-4e72-800b-39a311ca4cc3))
  (fp_line (start 2.5 0) (end -2.5 0) (layer "F.Fab") (width 0.2) (tstamp 154e38bc-06f4-4ed7-a623-aa953f065685))
  (fp_line (start -2.5 0) (end -2.5 12) (layer "F.Fab") (width 0.2) (tstamp 5dcecff5-9a29-4096-9e16-b25582963e34))
  (fp_line (start -2.5 12) (end 2.5 12) (layer "F.Fab") (width 0.2) (tstamp 85d6cd0c-db15-4b93-a1a8-8568ede92cbd))
  (fp_line (start 2.5 12) (end 2.5 0) (layer "F.Fab") (width 0.2) (tstamp e5e3d600-b03a-402e-9f5f-d78dda7e583b))
  (pad "" np_thru_hole circle (at 0 3) (size 1.3 1.3) (drill 1.3) (layers *.Cu *.Mask) (tstamp 141b0838-1419-41ba-b377-35df48954e47))
  (pad "" np_thru_hole circle (at 0 9) (size 1.3 1.3) (drill 1.3) (layers *.Cu *.Mask) (tstamp 4e9fe912-2836-4000-85c2-c94e44c63d05))
  (pad "R1" smd rect (at 3.4 5.3 90) (size 1.6 2.9) (layers "F.Cu" "F.Paste" "F.Mask") (tstamp 81859cdd-11c9-4713-b3a1-5b46206c4b4f))
  (pad "S1" smd rect (at 3.4 1.7 90) (size 1.6 2.9) (layers "F.Cu" "F.Paste" "F.Mask") (tstamp 509ed952-d40c-484c-9a80-d59a22ab91f7))
  (pad "SN1" smd rect (at -3.4 2.3 90) (size 1.6 2.9) (layers "F.Cu" "F.Paste" "F.Mask") (tstamp e17c82bc-0eaa-4130-bd93-99dff8d13981))
  (pad "T1" smd rect (at -3.4 9.39 90) (size 1.6 2.9) (layers "F.Cu" "F.Paste" "F.Mask") (tstamp 43d9f36c-7454-4c0a-b77a-edcc740aae51))
  (pad "TN1" smd rect (at 3.4 10.99 90) (size 1.6 2.9) (layers "F.Cu" "F.Paste" "F.Mask") (tstamp f501d5b8-ff80-41d2-a1e9-e3c88d185b5f))
  (model "/home/gustav/development/my_projects/lib/kicad_lib/footprint/my_connector_audio.pretty/PJ-327U-SMT.stp"
    (offset (xyz 0 0 2.2))
    (scale (xyz 1 1 1))
    (rotate (xyz -90 0 -180))
  )
)
