(footprint "RPi_PicoW_SMD" (version 20211014) (generator pcbnew)
  (layer "F.Cu")
  (tedit 61436715)
  (descr "Through hole straight pin header, 2x20, 2.54mm pitch, double rows")
  (tags "Through hole pin header THT 2x20 2.54mm double row")
  (attr through_hole)
  (fp_text reference "U" (at -9.9 -26.9) (layer "F.SilkS")
    (effects (font (size 1 1) (thickness 0.15)))
    (tstamp 9770c02b-e18f-4633-9b06-6881b94a9d1a)
  )
  (fp_text value "Pico" (at 0 -6.1) (layer "F.Fab")
    (effects (font (size 1 1) (thickness 0.15)))
    (tstamp 1f8f536e-7f83-43a2-a891-e9593df2b1ee)
  )
  (fp_text user "Copper Keepouts shown on Dwgs layer" (at 0.1 -30.2) (layer "Cmts.User")
    (effects (font (size 1 1) (thickness 0.15)))
    (tstamp 32e6e0eb-d034-4567-9b38-1567746a6d90)
  )
  (fp_text user "${REFERENCE}" (at 0 0 180) (layer "F.Fab")
    (effects (font (size 1 1) (thickness 0.15)))
    (tstamp 6e38957b-39f3-4f36-9e4f-a337632a7ed6)
  )
  (fp_line (start 1.1 25.5) (end 1.5 25.5) (layer "F.SilkS") (width 0.12) (tstamp 0200f769-0e20-49ce-9a54-c8f6445ff072))
  (fp_line (start 10.5 -12.9) (end 10.5 -12.5) (layer "F.SilkS") (width 0.12) (tstamp 0f893b53-0fa2-4ac2-99d8-5fa9e26b921c))
  (fp_line (start 10.5 -15.4) (end 10.5 -15) (layer "F.SilkS") (width 0.12) (tstamp 154b56bd-b8d0-4a7d-a540-602fd011bdf2))
  (fp_line (start -10.5 12.5) (end -10.5 12.9) (layer "F.SilkS") (width 0.12) (tstamp 1c7799b2-7df3-4942-aa4d-e05eef0c8337))
  (fp_line (start 10.5 10) (end 10.5 10.4) (layer "F.SilkS") (width 0.12) (tstamp 26418ada-878b-4b11-a98a-a4f3266c07b5))
  (fp_line (start -10.5 2.3) (end -10.5 2.7) (layer "F.SilkS") (width 0.12) (tstamp 3327a932-5e03-4aa6-8362-81785ea92525))
  (fp_line (start 10.5 4.9) (end 10.5 5.3) (layer "F.SilkS") (width 0.12) (tstamp 35682d85-1b72-4b49-a989-596b09b5a55d))
  (fp_line (start 10.5 2.3) (end 10.5 2.7) (layer "F.SilkS") (width 0.12) (tstamp 38c3ea8b-f37e-49af-9f8b-696a922b0a81))
  (fp_line (start 10.5 25.5) (end 3.7 25.5) (layer "F.SilkS") (width 0.12) (tstamp 3b9e8302-7ef9-4cfb-be1f-36056a3426f4))
  (fp_line (start -10.5 10) (end -10.5 10.4) (layer "F.SilkS") (width 0.12) (tstamp 3dce5a07-beb5-42b7-a8d2-c3be0a18a557))
  (fp_line (start -10.5 4.9) (end -10.5 5.3) (layer "F.SilkS") (width 0.12) (tstamp 42589d9e-02db-4a0f-86dc-45d67956db2d))
  (fp_line (start 10.5 -20.5) (end 10.5 -20.1) (layer "F.SilkS") (width 0.12) (tstamp 4e9f8182-42dc-4160-88f0-44ba0a2e613c))
  (fp_line (start -1.5 25.5) (end -1.1 25.5) (layer "F.SilkS") (width 0.12) (tstamp 57c00191-96e3-4a86-95da-4b54d1f205a8))
  (fp_line (start 10.5 20.1) (end 10.5 20.5) (layer "F.SilkS") (width 0.12) (tstamp 584f842b-34f3-443c-911a-d4cd7a8b43c4))
  (fp_line (start -10.5 -23.1) (end -10.5 -22.7) (layer "F.SilkS") (width 0.12) (tstamp 5b9e4686-aeec-4ca8-9f44-5e12d75e9a4f))
  (fp_line (start 10.5 15.1) (end 10.5 15.5) (layer "F.SilkS") (width 0.12) (tstamp 5c6db7c5-49fe-42f0-acb6-29470da129fa))
  (fp_line (start 10.5 -5.3) (end 10.5 -4.9) (layer "F.SilkS") (width 0.12) (tstamp 5fcdf2b5-3521-4ae3-bc59-3621daf28711))
  (fp_line (start -10.5 -0.2) (end -10.5 0.2) (layer "F.SilkS") (width 0.12) (tstamp 61e3aa6d-3d36-4f65-95c1-b733035c5512))
  (fp_line (start -10.5 -20.5) (end -10.5 -20.1) (layer "F.SilkS") (width 0.12) (tstamp 621a5f33-e941-45fe-b868-d1e6f62c0a90))
  (fp_line (start -10.5 20.1) (end -10.5 20.5) (layer "F.SilkS") (width 0.12) (tstamp 63623788-5140-4207-bb59-394139482a44))
  (fp_line (start 10.5 12.5) (end 10.5 12.9) (layer "F.SilkS") (width 0.12) (tstamp 6aa9ccd2-cbb1-4fb1-88ca-fdf45fa3ae37))
  (fp_line (start -10.5 -12.9) (end -10.5 -12.5) (layer "F.SilkS") (width 0.12) (tstamp 8703c751-9c77-4a40-bee8-aa848c9147d4))
  (fp_line (start 10.5 -23.1) (end 10.5 -22.7) (layer "F.SilkS") (width 0.12) (tstamp 8ac46659-5028-4e30-922a-eac266322fa4))
  (fp_line (start -10.5 -2.7) (end -10.5 -2.3) (layer "F.SilkS") (width 0.12) (tstamp 8c6ecf50-a72f-45a5-b4a3-3a1b01eadf98))
  (fp_line (start 10.5 -0.2) (end 10.5 0.2) (layer "F.SilkS") (width 0.12) (tstamp 8fdaa659-e193-400d-bdcf-eed518b6f97a))
  (fp_line (start -10.5 -10.4) (end -10.5 -10) (layer "F.SilkS") (width 0.12) (tstamp 9027d96a-52f5-476c-b81e-c82532d3dcb7))
  (fp_line (start 10.5 -2.7) (end 10.5 -2.3) (layer "F.SilkS") (width 0.12) (tstamp 9696384a-4540-4194-989f-c35c4193e758))
  (fp_line (start 10.5 7.4) (end 10.5 7.8) (layer "F.SilkS") (width 0.12) (tstamp 9bbcb3f7-df71-4f8b-90dc-62bb6fa2b59b))
  (fp_line (start -10.5 -18) (end -10.5 -17.6) (layer "F.SilkS") (width 0.12) (tstamp a00e32da-2325-456e-94c7-5da3c664ec54))
  (fp_line (start 10.5 -7.8) (end 10.5 -7.4) (layer "F.SilkS") (width 0.12) (tstamp a48641a6-6ca8-4f12-938a-1e9d3a5e266d))
  (fp_line (start -3.7 25.5) (end -10.5 25.5) (layer "F.SilkS") (width 0.12) (tstamp a6d7f9c6-9504-4931-812e-d87c7d38a45c))
  (fp_line (start -10.5 -7.8) (end -10.5 -7.4) (layer "F.SilkS") (width 0.12) (tstamp ab7a940c-0ea8-49f0-9530-8651ca44a75c))
  (fp_line (start -10.5 22.7) (end -10.5 23.1) (layer "F.SilkS") (width 0.12) (tstamp b0eacd98-fa95-4603-9128-384589d45684))
  (fp_line (start 10.5 17.6) (end 10.5 18) (layer "F.SilkS") (width 0.12) (tstamp b0f637e7-82e9-4cb4-a540-df6b3d4c13ca))
  (fp_line (start -10.5 -25.5) (end 10.5 -25.5) (layer "F.SilkS") (width 0.12) (tstamp bf6a78b9-fbcc-4705-b189-ae12d01b3aa6))
  (fp_line (start -10.5 -15.4) (end -10.5 -15) (layer "F.SilkS") (width 0.12) (tstamp c114e22d-03b8-48d1-96fe-2d6fa7da5d79))
  (fp_line (start 10.5 -10.4) (end 10.5 -10) (layer "F.SilkS") (width 0.12) (tstamp c8421619-bfcc-4db9-9d95-17391592de97))
  (fp_line (start -7.493 -22.833) (end -7.493 -25.5) (layer "F.SilkS") (width 0.12) (tstamp cb970423-221e-4e30-a536-9504cfa9cd2b))
  (fp_line (start 10.5 22.7) (end 10.5 23.1) (layer "F.SilkS") (width 0.12) (tstamp cf70cffa-c8e4-442f-8fcf-01a3478fb9b7))
  (fp_line (start 10.5 -18) (end 10.5 -17.6) (layer "F.SilkS") (width 0.12) (tstamp d44f6fba-47c5-4941-a414-d5a75dcedee3))
  (fp_line (start -10.5 15.1) (end -10.5 15.5) (layer "F.SilkS") (width 0.12) (tstamp d50b6861-4ff1-42a1-85c6-8c0f16d1ebb2))
  (fp_line (start -10.5 -22.833) (end -7.493 -22.833) (layer "F.SilkS") (width 0.12) (tstamp e1e7b798-61ee-4fe8-b9cf-3b74b206974f))
  (fp_line (start 10.5 -25.5) (end 10.5 -25.2) (layer "F.SilkS") (width 0.12) (tstamp e2741238-d2d1-41a1-b6b7-d357e6612949))
  (fp_line (start -10.5 -5.3) (end -10.5 -4.9) (layer "F.SilkS") (width 0.12) (tstamp e41eeca2-199e-4beb-99de-6e4969131852))
  (fp_line (start -10.5 -25.5) (end -10.5 -25.2) (layer "F.SilkS") (width 0.12) (tstamp e6449a26-17f2-4fb7-b0bf-871e2e859dbf))
  (fp_line (start -10.5 17.6) (end -10.5 18) (layer "F.SilkS") (width 0.12) (tstamp e98dba53-f49e-46e7-a354-7e4e19349dc2))
  (fp_line (start -10.5 7.4) (end -10.5 7.8) (layer "F.SilkS") (width 0.12) (tstamp fdb571c0-ea0e-4113-a2a4-a2bd703e0646))
  (fp_line (start -7.1 25.5) (end -7.1 17) (layer "Dwgs.User") (width 0.12) (tstamp 28f255f6-e7cb-4ae4-897a-3fa02e5267ba))
  (fp_line (start -7.1 17) (end 7.1 17) (layer "Dwgs.User") (width 0.12) (tstamp 53581202-4de6-4ac5-afb2-e5629c4013e6))
  (fp_line (start 7.1 17) (end 7.1 25.5) (layer "Dwgs.User") (width 0.12) (tstamp 60c3cc07-2386-45a9-bd66-c863b9f22855))
  (fp_line (start 11 26) (end -11 26) (layer "F.CrtYd") (width 0.12) (tstamp 1d1b2de8-50a7-4eba-bd3b-e94eea6b2633))
  (fp_line (start -11 26) (end -11 -26) (layer "F.CrtYd") (width 0.12) (tstamp 23e759c5-fa3c-4bcf-b974-5c71f5324d2f))
  (fp_line (start 11 -26) (end 11 26) (layer "F.CrtYd") (width 0.12) (tstamp a3279d11-2898-406f-bee7-c916b0881c10))
  (fp_line (start -11 -26) (end 11 -26) (layer "F.CrtYd") (width 0.12) (tstamp b034889c-ecff-4750-9dad-c7aea947e3f2))
  (fp_line (start 10.5 -25.5) (end 10.5 25.5) (layer "F.Fab") (width 0.12) (tstamp 34e7070e-5b7a-4cac-95bf-5cc9057f2070))
  (fp_line (start -10.5 -24.2) (end -9.2 -25.5) (layer "F.Fab") (width 0.12) (tstamp 72a3118c-9096-4ea3-88ce-3305a515579a))
  (fp_line (start -10.5 -25.5) (end 10.5 -25.5) (layer "F.Fab") (width 0.12) (tstamp 7d20675d-2d35-4674-8544-90076d7e03b5))
  (fp_line (start -10.5 25.5) (end -10.5 -25.5) (layer "F.Fab") (width 0.12) (tstamp d49883a0-12d2-460e-a097-191433d186d5))
  (fp_line (start 10.5 25.5) (end -10.5 25.5) (layer "F.Fab") (width 0.12) (tstamp f1c9562b-91d6-477d-9dd5-1ece50a5ba97))
  (pad "1" smd rect (at -8.89 -24.13) (size 3.5 1.7) (drill (offset -0.9 0)) (layers "F.Cu" "F.Mask") (tstamp b43718f5-dc30-40be-9253-c06344cd48d2))
  (pad "2" smd rect (at -8.89 -21.59) (size 3.5 1.7) (drill (offset -0.9 0)) (layers "F.Cu" "F.Mask") (tstamp 249a1a0b-52d8-48f3-9059-65666187508e))
  (pad "3" smd rect (at -8.89 -19.05) (size 3.5 1.7) (drill (offset -0.9 0)) (layers "F.Cu" "F.Mask") (tstamp aa3b40f4-0f1d-42d4-9d37-6be4fddffc05))
  (pad "4" smd rect (at -8.89 -16.51) (size 3.5 1.7) (drill (offset -0.9 0)) (layers "F.Cu" "F.Mask") (tstamp 163b9e02-3cc0-43b2-9f19-59ee3ab10272))
  (pad "5" smd rect (at -8.89 -13.97) (size 3.5 1.7) (drill (offset -0.9 0)) (layers "F.Cu" "F.Mask") (tstamp 510307aa-04d1-4d55-8f06-1bf5daff489c))
  (pad "6" smd rect (at -8.89 -11.43) (size 3.5 1.7) (drill (offset -0.9 0)) (layers "F.Cu" "F.Mask") (tstamp 614aba8c-f618-4357-ba4f-2be9cdb764ed))
  (pad "7" smd rect (at -8.89 -8.89) (size 3.5 1.7) (drill (offset -0.9 0)) (layers "F.Cu" "F.Mask") (tstamp 8e25278b-e45e-44f5-a2ba-dc072cdfc665))
  (pad "8" smd rect (at -8.89 -6.35) (size 3.5 1.7) (drill (offset -0.9 0)) (layers "F.Cu" "F.Mask") (tstamp 8c7661a3-1cf3-4ce2-b22f-1960844cb968))
  (pad "9" smd rect (at -8.89 -3.81) (size 3.5 1.7) (drill (offset -0.9 0)) (layers "F.Cu" "F.Mask") (tstamp 0ed453e1-fa47-43fb-b873-573ab62dba5e))
  (pad "10" smd rect (at -8.89 -1.27) (size 3.5 1.7) (drill (offset -0.9 0)) (layers "F.Cu" "F.Mask") (tstamp bb18f56f-c07e-4905-a72f-7508a4aaf3ba))
  (pad "11" smd rect (at -8.89 1.27) (size 3.5 1.7) (drill (offset -0.9 0)) (layers "F.Cu" "F.Mask") (tstamp ceeca828-8ea9-487d-8413-67fc2ad11278))
  (pad "12" smd rect (at -8.89 3.81) (size 3.5 1.7) (drill (offset -0.9 0)) (layers "F.Cu" "F.Mask") (tstamp 00eedf01-f868-45fe-a111-fb3be2341d4e))
  (pad "13" smd rect (at -8.89 6.35) (size 3.5 1.7) (drill (offset -0.9 0)) (layers "F.Cu" "F.Mask") (tstamp 590fbb12-ac01-402e-b778-947517cfe6ee))
  (pad "14" smd rect (at -8.89 8.89) (size 3.5 1.7) (drill (offset -0.9 0)) (layers "F.Cu" "F.Mask") (tstamp 03fc67c0-a6d9-4fce-8f43-aae1f2f8dca2))
  (pad "15" smd rect (at -8.89 11.43) (size 3.5 1.7) (drill (offset -0.9 0)) (layers "F.Cu" "F.Mask") (tstamp 196a01b9-9b72-491b-8502-821e660e05e5))
  (pad "16" smd rect (at -8.89 13.97) (size 3.5 1.7) (drill (offset -0.9 0)) (layers "F.Cu" "F.Mask") (tstamp 1cb9c272-c2d3-469e-a4c6-bbbea1d506f0))
  (pad "17" smd rect (at -8.89 16.51) (size 3.5 1.7) (drill (offset -0.9 0)) (layers "F.Cu" "F.Mask") (tstamp 17aedee9-50ea-4cff-bbe3-6ef8b2ea9fbd))
  (pad "18" smd rect (at -8.89 19.05) (size 3.5 1.7) (drill (offset -0.9 0)) (layers "F.Cu" "F.Mask") (tstamp 6787577b-04dd-4568-b274-0c9ad31e5f4c))
  (pad "19" smd rect (at -8.89 21.59) (size 3.5 1.7) (drill (offset -0.9 0)) (layers "F.Cu" "F.Mask") (tstamp 7b631c1b-343e-4d60-95fa-0ed31d3322bf))
  (pad "20" smd rect (at -8.89 24.13) (size 3.5 1.7) (drill (offset -0.9 0)) (layers "F.Cu" "F.Mask") (tstamp d539dd7d-d6c8-4a16-bfb7-4e67f395709c))
  (pad "21" smd rect (at 8.89 24.13) (size 3.5 1.7) (drill (offset 0.9 0)) (layers "F.Cu" "F.Mask") (tstamp 1d475a6d-2f2c-4746-a69d-39bd546073d7))
  (pad "22" smd rect (at 8.89 21.59) (size 3.5 1.7) (drill (offset 0.9 0)) (layers "F.Cu" "F.Mask") (tstamp 2adac1d8-d035-4946-9fdd-4789634098c5))
  (pad "23" smd rect (at 8.89 19.05) (size 3.5 1.7) (drill (offset 0.9 0)) (layers "F.Cu" "F.Mask") (tstamp 6433c1c4-b5b0-485b-9ab4-bf7326fef425))
  (pad "24" smd rect (at 8.89 16.51) (size 3.5 1.7) (drill (offset 0.9 0)) (layers "F.Cu" "F.Mask") (tstamp c4433478-32e3-474c-b9aa-32c18a407658))
  (pad "25" smd rect (at 8.89 13.97) (size 3.5 1.7) (drill (offset 0.9 0)) (layers "F.Cu" "F.Mask") (tstamp 1335a61c-9225-4d54-a9de-8fb685dcbd0c))
  (pad "26" smd rect (at 8.89 11.43) (size 3.5 1.7) (drill (offset 0.9 0)) (layers "F.Cu" "F.Mask") (tstamp 61e98edf-ed4d-495c-a23b-1f3178aa250b))
  (pad "27" smd rect (at 8.89 8.89) (size 3.5 1.7) (drill (offset 0.9 0)) (layers "F.Cu" "F.Mask") (tstamp dc5dc4a1-a7d0-42a5-a830-7df496110069))
  (pad "28" smd rect (at 8.89 6.35) (size 3.5 1.7) (drill (offset 0.9 0)) (layers "F.Cu" "F.Mask") (tstamp 243193ca-7a49-487b-89fb-f73c9d0bb143))
  (pad "29" smd rect (at 8.89 3.81) (size 3.5 1.7) (drill (offset 0.9 0)) (layers "F.Cu" "F.Mask") (tstamp 54bee376-9c1e-4ea7-93c9-ec734e544b43))
  (pad "30" smd rect (at 8.89 1.27) (size 3.5 1.7) (drill (offset 0.9 0)) (layers "F.Cu" "F.Mask") (tstamp b1b9bf63-7ffe-4fea-89ac-5c816787830b))
  (pad "31" smd rect (at 8.89 -1.27) (size 3.5 1.7) (drill (offset 0.9 0)) (layers "F.Cu" "F.Mask") (tstamp 8e7cd60b-3fc9-43cb-af96-b26852cf668a))
  (pad "32" smd rect (at 8.89 -3.81) (size 3.5 1.7) (drill (offset 0.9 0)) (layers "F.Cu" "F.Mask") (tstamp 663bab59-f3ee-4d37-a702-e575fb92a3d7))
  (pad "33" smd rect (at 8.89 -6.35) (size 3.5 1.7) (drill (offset 0.9 0)) (layers "F.Cu" "F.Mask") (tstamp 95f8b40c-fd94-47ad-adfb-bc9a376fa7bb))
  (pad "34" smd rect (at 8.89 -8.89) (size 3.5 1.7) (drill (offset 0.9 0)) (layers "F.Cu" "F.Mask") (tstamp 362bce95-f42a-4ba9-a3ee-b2ce531c8aa5))
  (pad "35" smd rect (at 8.89 -11.43) (size 3.5 1.7) (drill (offset 0.9 0)) (layers "F.Cu" "F.Mask") (tstamp e71e9a2a-2076-4135-853a-0b38d46fca16))
  (pad "36" smd rect (at 8.89 -13.97) (size 3.5 1.7) (drill (offset 0.9 0)) (layers "F.Cu" "F.Mask") (tstamp ee3d621e-237d-4382-b7e3-a9fcf17e4bec))
  (pad "37" smd rect (at 8.89 -16.51) (size 3.5 1.7) (drill (offset 0.9 0)) (layers "F.Cu" "F.Mask") (tstamp 3817a24d-d23c-415c-b6f7-fe1dd06f5ba1))
  (pad "38" smd rect (at 8.89 -19.05) (size 3.5 1.7) (drill (offset 0.9 0)) (layers "F.Cu" "F.Mask") (tstamp 1c92e6b7-9cbf-4c7a-a924-5052f9906a0f))
  (pad "39" smd rect (at 8.89 -21.59) (size 3.5 1.7) (drill (offset 0.9 0)) (layers "F.Cu" "F.Mask") (tstamp 332867b2-3be3-4674-b436-1bcb7b34df15))
  (pad "40" smd rect (at 8.89 -24.13) (size 3.5 1.7) (drill (offset 0.9 0)) (layers "F.Cu" "F.Mask") (tstamp dc8741d5-8cc8-4f96-892f-3db0a67f653d))
  (zone (net 0) (net_name "") (layers "F.Cu" "F.SilkS") (tstamp 1b8ab3b0-63c5-4ac9-9271-1e6986b70e84) (hatch edge 0.508)
    (connect_pads (clearance 0))
    (min_thickness 0.254)
    (keepout (tracks not_allowed) (vias not_allowed) (pads not_allowed) (copperpour not_allowed) (footprints allowed))
    (fill (thermal_gap 0.508) (thermal_bridge_width 0.508))
    (polygon
      (pts
        (xy -1.4 -12.3)
        (xy -3.6 -12.3)
        (xy -3.6 -14.5)
        (xy -1.4 -14.5)
      )
    )
  )
  (zone (net 0) (net_name "") (layers "F.Cu" "F.SilkS") (tstamp 490512d4-ad92-4cd1-b0ed-90812b2d399b) (hatch edge 0.508)
    (connect_pads (clearance 0))
    (min_thickness 0.254)
    (keepout (tracks not_allowed) (vias not_allowed) (pads not_allowed) (copperpour not_allowed) (footprints allowed))
    (fill (thermal_gap 0.508) (thermal_bridge_width 0.508))
    (polygon
      (pts
        (xy -1.4 -14.8)
        (xy -3.6 -14.8)
        (xy -3.6 -17)
        (xy -1.4 -17)
      )
    )
  )
  (zone (net 0) (net_name "") (layers "F.Cu" "F.SilkS") (tstamp a4ed6f83-74c6-487e-936b-f4df234ce8ae) (hatch edge 0.508)
    (connect_pads (clearance 0))
    (min_thickness 0.254)
    (keepout (tracks not_allowed) (vias not_allowed) (pads not_allowed) (copperpour not_allowed) (footprints allowed))
    (fill (thermal_gap 0.508) (thermal_bridge_width 0.508))
    (polygon
      (pts
        (xy 3.8 -20.1)
        (xy -3.8 -20.1)
        (xy -3.8 -25)
        (xy 3.8 -25)
      )
    )
  )
  (zone (net 0) (net_name "") (layers "F.Cu" "F.SilkS") (tstamp c93b27aa-295d-47c5-81ac-aac9b5d870ac) (hatch edge 0.508)
    (connect_pads (clearance 0))
    (min_thickness 0.254)
    (keepout (tracks not_allowed) (vias not_allowed) (pads not_allowed) (copperpour not_allowed) (footprints allowed))
    (fill (thermal_gap 0.508) (thermal_bridge_width 0.508))
    (polygon
      (pts
        (xy 7.2 25.6)
        (xy -7.2 25.6)
        (xy -7.2 16.9)
        (xy 7.2 16.9)
      )
    )
  )
  (zone (net 0) (net_name "") (layers "F.Cu" "F.SilkS") (tstamp f77196fe-7cea-496f-a973-0e91f2cc4ae8) (hatch edge 0.508)
    (connect_pads (clearance 0))
    (min_thickness 0.254)
    (keepout (tracks not_allowed) (vias not_allowed) (pads not_allowed) (copperpour not_allowed) (footprints allowed))
    (fill (thermal_gap 0.508) (thermal_bridge_width 0.508))
    (polygon
      (pts
        (xy -1.4 -9.8)
        (xy -3.6 -9.8)
        (xy -3.6 -12)
        (xy -1.4 -12)
      )
    )
  )
  (model "/home/gustav/development/my_projects/lib/kicad_lib/footprint/my_raspberry.pretty/RPi_PicoW_SMD_TH.stp"
    (offset (xyz -10.5 -25.5 1))
    (scale (xyz 1 1 1))
    (rotate (xyz 0 0 0))
  )
)
