(footprint "2920L030DR" (version 20211014) (generator pcbnew)
  (layer "F.Cu")
  (tedit 0)
  (descr "2920L")
  (tags "Resettable Fuse")
  (attr smd)
  (fp_text reference "F**" (at 0 -3.5) (layer "F.SilkS")
    (effects (font (size 1.27 1.27) (thickness 0.254)))
    (tstamp a81e66ff-aa59-4598-a44e-6d033552e9b6)
  )
  (fp_text value "2920L030DR" (at 0 0) (layer "F.SilkS") hide
    (effects (font (size 1.27 1.27) (thickness 0.254)))
    (tstamp 4f2f659c-aeba-459a-8ee3-327d0af3c5d2)
  )
  (fp_text user "${REFERENCE}" (at 0 0) (layer "F.Fab")
    (effects (font (size 1.27 1.27) (thickness 0.254)))
    (tstamp a9e26cd7-b8ad-4fc7-9321-8f9ff3d61fee)
  )
  (fp_line (start -4.7 -0.1) (end -4.7 -0.1) (layer "F.SilkS") (width 0.2) (tstamp 2db79278-1f88-4310-b8f0-31cde3890ec0))
  (fp_line (start 0 -2.46) (end 0 2.46) (layer "F.SilkS") (width 0.2) (tstamp 44a60701-767f-4a9a-9211-43b20a27000c))
  (fp_line (start -4.7 0.1) (end -4.7 0.1) (layer "F.SilkS") (width 0.2) (tstamp f223d5d3-4062-459e-aac6-9e3bc4567544))
  (fp_arc (start -4.7 -0.1) (mid -4.6 0) (end -4.7 0.1) (layer "F.SilkS") (width 0.2) (tstamp 2e70276d-36fe-46b0-8787-afe8cbc9b6b6))
  (fp_arc (start -4.7 0.1) (mid -4.8 0) (end -4.7 -0.1) (layer "F.SilkS") (width 0.2) (tstamp 3b0be7d2-5e27-4bae-ac8f-e9a7cee68b5c))
  (fp_line (start 5 3.4) (end -5 3.4) (layer "F.CrtYd") (width 0.05) (tstamp 9b6963b5-5942-47c2-a989-56c8c9200d69))
  (fp_line (start -5 3.4) (end -5 -3.4) (layer "F.CrtYd") (width 0.05) (tstamp c9deee65-a09f-4d9f-9b9b-ce5dbbe614b4))
  (fp_line (start -5 -3.4) (end 5 -3.4) (layer "F.CrtYd") (width 0.05) (tstamp e711c7a5-cf71-465c-8935-f7b2e8df1a80))
  (fp_line (start 5 -3.4) (end 5 3.4) (layer "F.CrtYd") (width 0.05) (tstamp f679f317-f106-4f6d-9b71-cf037490f6d6))
  (fp_line (start 3.678 2.56) (end -3.678 2.56) (layer "F.Fab") (width 0.1) (tstamp 82e3a50c-1270-4884-a4ed-c035993cb6df))
  (fp_line (start 3.678 -2.56) (end 3.678 2.56) (layer "F.Fab") (width 0.1) (tstamp 8a7a3e58-35a3-4f0d-b70a-312b2124acde))
  (fp_line (start -3.678 2.56) (end -3.678 -2.56) (layer "F.Fab") (width 0.1) (tstamp e11d922e-e1f9-4a17-951a-5f5b098b30a1))
  (fp_line (start -3.678 -2.56) (end 3.678 -2.56) (layer "F.Fab") (width 0.1) (tstamp e7d1f3f1-cd8f-438e-ac08-228aa941c741))
  (pad "1" smd rect (at -3.3 0) (size 2 5.3) (layers "F.Cu" "F.Paste" "F.Mask") (tstamp 597dcb26-e8f3-4305-9484-8e2766a96b72))
  (pad "2" smd rect (at 3.3 0) (size 2 5.3) (layers "F.Cu" "F.Paste" "F.Mask") (tstamp 484a058d-4ded-44fe-8f87-bd3a22869646))
  (model "/home/gustav/development/my_projects/lib/kicad_lib/footprint/my_fuse.pretty/2920L250DR.stp"
    (offset (xyz 0 0 0))
    (scale (xyz 1 1 1))
    (rotate (xyz 0 0 0))
  )
)
