(module rubber_feet_10_10 (layer F.Cu) (tedit 5D977310)
  (fp_text reference * (at 0 0) (layer F.SilkS)
    (effects (font (size 1 1) (thickness 0.15)))
  )
  (fp_text value rubber_feet_10_10 (at 0 -7.5) (layer F.Fab)
    (effects (font (size 1 1) (thickness 0.15)))
  )
  (fp_line (start -5 5) (end 5 5) (layer F.SilkS) (width 0.15))
  (fp_line (start 5 5) (end 5 -5) (layer F.SilkS) (width 0.15))
  (fp_line (start 5 -5) (end -5 -5) (layer F.SilkS) (width 0.15))
  (fp_line (start -5 -5) (end -5 5) (layer F.SilkS) (width 0.15))
  (fp_line (start -5.1 -5.1) (end 5.1 -5.1) (layer F.CrtYd) (width 0.15))
  (fp_line (start 5.1 -5.1) (end 5.1 5.1) (layer F.CrtYd) (width 0.15))
  (fp_line (start 5.1 5.1) (end -5.1 5.1) (layer F.CrtYd) (width 0.15))
  (fp_line (start -5.1 5.1) (end -5.1 -5.1) (layer F.CrtYd) (width 0.15))
)
