(kicad_symbol_lib (version 20211014) (generator kicad_symbol_editor)
  (symbol "2920L250DR" (pin_numbers hide) (pin_names (offset 0)) (in_bom yes) (on_board yes)
    (property "Reference" "F" (id 0) (at -0.127 2.54 0)
      (effects (font (size 1.27 1.27)))
    )
    (property "Value" "2920L250DR" (id 1) (at 0.127 -2.54 0)
      (effects (font (size 1.27 1.27)))
    )
    (property "Footprint" "my_fuse:2920L030DR" (id 2) (at 0 31.75 0)
      (effects (font (size 1.27 1.27)) hide)
    )
    (property "Datasheet" "https://www.littelfuse.com/~/media/electronics/datasheets/resettable_ptcs/littelfuse_ptc_2920l_datasheet.pdf.pdf" (id 3) (at -8.763 1.27 0)
      (effects (font (size 1.27 1.27)) hide)
    )
    (property "Manufacturer" "Littelfuse Inc." (id 4) (at 0 26.67 0)
      (effects (font (size 1.27 1.27)) hide)
    )
    (property "Manufacturer Nr." "2920L250DR" (id 5) (at 0 19.05 0)
      (effects (font (size 1.27 1.27)) hide)
    )
    (property "Supplier" "Digikey" (id 6) (at 0 21.59 0)
      (effects (font (size 1.27 1.27)) hide)
    )
    (property "Supplier Nr." "F2873CT-ND" (id 7) (at 0 24.13 0)
      (effects (font (size 1.27 1.27)) hide)
    )
    (property "Assembler" "JLCPCB" (id 8) (at 0 13.97 0)
      (effects (font (size 1.27 1.27)) hide)
    )
    (property "Assembler Nr." "C207088" (id 9) (at 0 11.43 0)
      (effects (font (size 1.27 1.27)) hide)
    )
    (property "Description" "Polymeric PTC Resettable Fuse 15V 2.5 A Ih Surface Mount 2920 (7351 Metric), Concave" (id 10) (at 0 29.21 0)
      (effects (font (size 1.27 1.27)) hide)
    )
    (property "Assembler BOM" "True" (id 11) (at 0 8.89 0)
      (effects (font (size 1.27 1.27)) hide)
    )
    (property "Variant" "V1" (id 12) (at 0 6.35 0)
      (effects (font (size 1.27 1.27)) hide)
    )
    (property "ki_keywords" "PTC RESET FUSE 15V 2.5A 2920" (id 13) (at 0 0 0)
      (effects (font (size 1.27 1.27)) hide)
    )
    (property "ki_description" "PTC RESET FUSE 15V 2.5A 2920" (id 14) (at 0 0 0)
      (effects (font (size 1.27 1.27)) hide)
    )
    (property "ki_fp_filters" "R_*" (id 15) (at 0 0 0)
      (effects (font (size 1.27 1.27)) hide)
    )
    (symbol "2920L250DR_0_1"
      (rectangle (start -2.54 -0.762) (end 2.54 0.762)
        (stroke (width 0.254) (type default) (color 0 0 0 0))
        (fill (type none))
      )
      (polyline
        (pts
          (xy -2.54 0)
          (xy 2.54 0)
        )
        (stroke (width 0) (type default) (color 0 0 0 0))
        (fill (type none))
      )
      (polyline
        (pts
          (xy -2.54 -1.524)
          (xy -1.524 -1.524)
          (xy 1.524 1.524)
          (xy 2.54 1.524)
        )
        (stroke (width 0) (type default) (color 0 0 0 0))
        (fill (type none))
      )
    )
    (symbol "2920L250DR_1_1"
      (pin passive line (at -3.81 0 0) (length 1.27)
        (name "~" (effects (font (size 1.27 1.27))))
        (number "1" (effects (font (size 1.27 1.27))))
      )
      (pin passive line (at 3.81 0 180) (length 1.27)
        (name "~" (effects (font (size 1.27 1.27))))
        (number "2" (effects (font (size 1.27 1.27))))
      )
    )
  )
)
