(kicad_symbol_lib (version 20211014) (generator kicad_symbol_editor)
  (symbol "RV-3028-C7" (in_bom yes) (on_board yes)
    (property "Reference" "U" (id 0) (at 7.62 8.89 0)
      (effects (font (size 1.27 1.27)))
    )
    (property "Value" "RV-3028-C7" (id 1) (at 7.62 -8.89 0)
      (effects (font (size 1.27 1.27)))
    )
    (property "Footprint" "my_rtc:MC-RV-3028-C7" (id 2) (at 0 46.99 0)
      (effects (font (size 1.27 1.27)) hide)
    )
    (property "Datasheet" "https://www.microcrystal.com/fileadmin/Media/Products/RTC/Datasheet/RV-3028-C7.pdf" (id 3) (at -10.16 5.08 0)
      (effects (font (size 1.27 1.27)) hide)
    )
    (property "Description" "Real Time Clock (RTC) IC Clock/Calendar 2B, 43B I²C 8-WCDFN" (id 4) (at 0 44.45 0)
      (effects (font (size 1.27 1.27)) hide)
    )
    (property "Manufacturer" "Micro Crystal AG" (id 5) (at 0 41.91 0)
      (effects (font (size 1.27 1.27)) hide)
    )
    (property "Manufacturer Nr." "RV-3028-C7 32.768KHZ 1PPM-TA-QA" (id 6) (at 0 39.37 0)
      (effects (font (size 1.27 1.27)) hide)
    )
    (property "Supplier" "Digikey" (id 7) (at 0 36.83 0)
      (effects (font (size 1.27 1.27)) hide)
    )
    (property "Supplier Nr." "2195-RV-3028-C732.768KHZ1PPM-TA-QACT-ND" (id 8) (at 0 34.29 0)
      (effects (font (size 1.27 1.27)) hide)
    )
    (property "Assembler" "JLCPCB" (id 9) (at 0 29.21 0)
      (effects (font (size 1.27 1.27)) hide)
    )
    (property "Assembler Nr." "-" (id 10) (at 0 26.67 0)
      (effects (font (size 1.27 1.27)) hide)
    )
    (property "Assembler BOM" "False" (id 11) (at 0 24.13 0)
      (effects (font (size 1.27 1.27)) hide)
    )
    (property "Variant" "V1" (id 12) (at 0 21.59 0)
      (effects (font (size 1.27 1.27)) hide)
    )
    (property "ki_keywords" "IC RTC CLK/CALENDAR I2C 8-SMT" (id 13) (at 0 0 0)
      (effects (font (size 1.27 1.27)) hide)
    )
    (property "ki_description" "IC RTC CLK/CALENDAR I2C 8-SMT" (id 14) (at 0 0 0)
      (effects (font (size 1.27 1.27)) hide)
    )
    (property "ki_fp_filters" "RTC*SMD*MicroCrystal*C3*2.5x3.7mm*" (id 15) (at 0 0 0)
      (effects (font (size 1.27 1.27)) hide)
    )
    (symbol "RV-3028-C7_0_1"
      (rectangle (start 10.16 7.62) (end -10.16 -7.62)
        (stroke (width 0.254) (type default) (color 0 0 0 0))
        (fill (type background))
      )
    )
    (symbol "RV-3028-C7_1_1"
      (pin output line (at 12.7 2.54 180) (length 2.54)
        (name "CLKOUT" (effects (font (size 1.27 1.27))))
        (number "1" (effects (font (size 1.27 1.27))))
      )
      (pin output line (at 12.7 0 180) (length 2.54)
        (name "~{INT}" (effects (font (size 1.27 1.27))))
        (number "2" (effects (font (size 1.27 1.27))))
      )
      (pin input line (at -12.7 1.27 0) (length 2.54)
        (name "SCL" (effects (font (size 1.27 1.27))))
        (number "3" (effects (font (size 1.27 1.27))))
      )
      (pin bidirectional line (at -12.7 -1.27 0) (length 2.54)
        (name "SDA" (effects (font (size 1.27 1.27))))
        (number "4" (effects (font (size 1.27 1.27))))
      )
      (pin power_in line (at 0 -10.16 90) (length 2.54)
        (name "VSS" (effects (font (size 1.27 1.27))))
        (number "5" (effects (font (size 1.27 1.27))))
      )
      (pin power_in line (at -12.7 -5.08 0) (length 2.54)
        (name "VBACKUP" (effects (font (size 1.27 1.27))))
        (number "6" (effects (font (size 1.27 1.27))))
      )
      (pin power_in line (at 0 10.16 270) (length 2.54)
        (name "VDD" (effects (font (size 1.27 1.27))))
        (number "7" (effects (font (size 1.27 1.27))))
      )
      (pin input line (at 12.7 -2.54 180) (length 2.54)
        (name "EVI" (effects (font (size 1.27 1.27))))
        (number "8" (effects (font (size 1.27 1.27))))
      )
    )
  )
)
