(kicad_symbol_lib (version 20211014) (generator kicad_symbol_editor)
  (symbol "EC11E1834403" (pin_numbers hide) (pin_names (offset 0)) (in_bom yes) (on_board yes)
    (property "Reference" "SW" (id 0) (at -5.08 6.35 0)
      (effects (font (size 1.27 1.27)))
    )
    (property "Value" "EC11E1834403" (id 1) (at 0 -6.35 0)
      (effects (font (size 1.27 1.27)))
    )
    (property "Footprint" "my_rotary_encoder:EC11E183440C" (id 2) (at 0 41.91 0)
      (effects (font (size 1.27 1.27)) hide)
    )
    (property "Datasheet" "https://datasheet.lcsc.com/lcsc/1912111437_ALPSALPINE-EC11E1834403_C361165.pdf" (id 3) (at 0 45.72 0)
      (effects (font (size 1.27 1.27)) hide)
    )
    (property "Manufacturer" "ALPSALPINE" (id 4) (at 0 36.83 0)
      (effects (font (size 1.27 1.27)) hide)
    )
    (property "Manufacturer Nr." "EC11E1834403" (id 5) (at 0 29.21 0)
      (effects (font (size 1.27 1.27)) hide)
    )
    (property "Supplier" "LCSC" (id 6) (at 0 31.75 0)
      (effects (font (size 1.27 1.27)) hide)
    )
    (property "Supplier Nr." "C361165" (id 7) (at 0 34.29 0)
      (effects (font (size 1.27 1.27)) hide)
    )
    (property "Assembler" "JLCPCB" (id 8) (at 0 24.13 0)
      (effects (font (size 1.27 1.27)) hide)
    )
    (property "Assembler Nr." "C361165" (id 9) (at 0 21.59 0)
      (effects (font (size 1.27 1.27)) hide)
    )
    (property "Description" "Plugin Rotary Encoders" (id 10) (at 0 39.37 0)
      (effects (font (size 1.27 1.27)) hide)
    )
    (property "Assembler BOM" "True" (id 11) (at 0 19.05 0)
      (effects (font (size 1.27 1.27)) hide)
    )
    (property "Variant" "V1" (id 12) (at 0 16.51 0)
      (effects (font (size 1.27 1.27)) hide)
    )
    (property "ki_keywords" "Plugin Rotary Encoders" (id 13) (at 0 0 0)
      (effects (font (size 1.27 1.27)) hide)
    )
    (property "ki_description" "Plugin Rotary Encoders" (id 14) (at 0 0 0)
      (effects (font (size 1.27 1.27)) hide)
    )
    (property "ki_fp_filters" "R_*" (id 15) (at 0 0 0)
      (effects (font (size 1.27 1.27)) hide)
    )
    (symbol "EC11E1834403_0_1"
      (rectangle (start -5.08 5.08) (end 5.08 -5.08)
        (stroke (width 0.254) (type default) (color 0 0 0 0))
        (fill (type background))
      )
      (circle (center -3.81 0) (radius 0.254)
        (stroke (width 0) (type default) (color 0 0 0 0))
        (fill (type outline))
      )
      (arc (start -0.381 -2.794) (mid 2.3622 -0.0508) (end -0.381 2.667)
        (stroke (width 0.254) (type default) (color 0 0 0 0))
        (fill (type none))
      )
      (circle (center -0.381 0) (radius 1.905)
        (stroke (width 0.254) (type default) (color 0 0 0 0))
        (fill (type none))
      )
      (polyline
        (pts
          (xy -0.635 -1.778)
          (xy -0.635 1.778)
        )
        (stroke (width 0.254) (type default) (color 0 0 0 0))
        (fill (type none))
      )
      (polyline
        (pts
          (xy -0.381 -1.778)
          (xy -0.381 1.778)
        )
        (stroke (width 0.254) (type default) (color 0 0 0 0))
        (fill (type none))
      )
      (polyline
        (pts
          (xy -0.127 1.778)
          (xy -0.127 -1.778)
        )
        (stroke (width 0.254) (type default) (color 0 0 0 0))
        (fill (type none))
      )
      (polyline
        (pts
          (xy 3.81 0)
          (xy 3.429 0)
        )
        (stroke (width 0.254) (type default) (color 0 0 0 0))
        (fill (type none))
      )
      (polyline
        (pts
          (xy 3.81 1.016)
          (xy 3.81 -1.016)
        )
        (stroke (width 0.254) (type default) (color 0 0 0 0))
        (fill (type none))
      )
      (polyline
        (pts
          (xy -5.08 -2.54)
          (xy -3.81 -2.54)
          (xy -3.81 -2.032)
        )
        (stroke (width 0) (type default) (color 0 0 0 0))
        (fill (type none))
      )
      (polyline
        (pts
          (xy -5.08 2.54)
          (xy -3.81 2.54)
          (xy -3.81 2.032)
        )
        (stroke (width 0) (type default) (color 0 0 0 0))
        (fill (type none))
      )
      (polyline
        (pts
          (xy 0.254 -3.048)
          (xy -0.508 -2.794)
          (xy 0.127 -2.413)
        )
        (stroke (width 0.254) (type default) (color 0 0 0 0))
        (fill (type none))
      )
      (polyline
        (pts
          (xy 0.254 2.921)
          (xy -0.508 2.667)
          (xy 0.127 2.286)
        )
        (stroke (width 0.254) (type default) (color 0 0 0 0))
        (fill (type none))
      )
      (polyline
        (pts
          (xy 5.08 -2.54)
          (xy 4.318 -2.54)
          (xy 4.318 -1.016)
        )
        (stroke (width 0.254) (type default) (color 0 0 0 0))
        (fill (type none))
      )
      (polyline
        (pts
          (xy 5.08 2.54)
          (xy 4.318 2.54)
          (xy 4.318 1.016)
        )
        (stroke (width 0.254) (type default) (color 0 0 0 0))
        (fill (type none))
      )
      (polyline
        (pts
          (xy -5.08 0)
          (xy -3.81 0)
          (xy -3.81 -1.016)
          (xy -3.302 -2.032)
        )
        (stroke (width 0) (type default) (color 0 0 0 0))
        (fill (type none))
      )
      (polyline
        (pts
          (xy -4.318 0)
          (xy -3.81 0)
          (xy -3.81 1.016)
          (xy -3.302 2.032)
        )
        (stroke (width 0) (type default) (color 0 0 0 0))
        (fill (type none))
      )
      (circle (center 4.318 -1.016) (radius 0.127)
        (stroke (width 0.254) (type default) (color 0 0 0 0))
        (fill (type none))
      )
      (circle (center 4.318 1.016) (radius 0.127)
        (stroke (width 0.254) (type default) (color 0 0 0 0))
        (fill (type none))
      )
    )
    (symbol "EC11E1834403_1_1"
      (pin passive line (at -7.62 2.54 0) (length 2.54)
        (name "A" (effects (font (size 1.27 1.27))))
        (number "A" (effects (font (size 1.27 1.27))))
      )
      (pin passive line (at -7.62 -2.54 0) (length 2.54)
        (name "B" (effects (font (size 1.27 1.27))))
        (number "B" (effects (font (size 1.27 1.27))))
      )
      (pin passive line (at -7.62 0 0) (length 2.54)
        (name "C" (effects (font (size 1.27 1.27))))
        (number "C" (effects (font (size 1.27 1.27))))
      )
      (pin passive line (at 7.62 2.54 180) (length 2.54)
        (name "S1" (effects (font (size 1.27 1.27))))
        (number "S1" (effects (font (size 1.27 1.27))))
      )
      (pin passive line (at 7.62 -2.54 180) (length 2.54)
        (name "S2" (effects (font (size 1.27 1.27))))
        (number "S2" (effects (font (size 1.27 1.27))))
      )
    )
  )
)
